…
| term              | estimate | std.error | statistic | p.value |
|:------------------|---------:|----------:|----------:|--------:|
| (Intercept)       |    0.586 |     0.009 |    66.381 |   0.000 |
| victim_age        |   -0.001 |     0.000 |    -2.941 |   0.003 |
| victim_raceWhite  |    0.147 |     0.007 |    20.759 |   0.000 |
| victim_sexMale    |   -0.123 |     0.007 |   -17.220 |   0.000 |
| victim_sexUnknown |   -0.017 |     0.078 |    -0.214 |   0.831 |

``` r
homicide_df %>% 
  group_by(city_state) %>% 
  summarise(total = n())
```

    ## # A tibble: 47 × 2
    ##    city_state      total
    ##    <chr>           <int>
    ##  1 Albuquerque, NM   178
    ##  2 Atlanta, GA       945
    ##  3 Baltimore, MD    2753
    ##  4 Baton Rouge, LA   410
    ##  5 Birmingham, AL    771
    ##  6 Boston, MA        492
    ##  7 Buffalo, NY       479
    ##  8 Charlotte, NC     584
    ##  9 Chicago, IL      4507
    ## 10 Cincinnati, OH    679
    ## # … with 37 more rows
…
homicide_log_fit
```

    ## # A tibble: 47 × 4
    ##    city_state         OR OR_CI_lower OR_CI_upper
    ##    <chr>           <dbl>       <dbl>       <dbl>
    ##  1 Albuquerque, NM 1.77        2.75        12.5 
    ##  2 Atlanta, GA     1.00        1.86         3.98
    ##  3 Baltimore, MD   0.426       1.17         2.01
    ##  4 Baton Rouge, LA 0.381       0.803        2.67
    ##  5 Birmingham, AL  0.870       1.58         3.62
    ##  6 Boston, MA      0.674       1.04         3.71
    ##  7 Buffalo, NY     0.521       0.937        3.02
    ##  8 Charlotte, NC   0.884       1.53         3.84
    ##  9 Chicago, IL     0.410       1.23         1.84
    ## 10 Cincinnati, OH  0.400       0.881        2.53
    ## # … with 37 more rows
